<svg xmlns="http://www.w3.org/2000/svg" width="18" height="19" viewBox="0 0 18 19">
    <g>
        <g>
            <path fill="#b8b8b8"
                  d="M17.812 17.852c.25.268.25.69 0 .948a.622.622 0 0 1-.457.2.64.64 0 0 1-.457-.2l-5.364-5.494a7.07 7.07 0 0 1-4.32 1.47C3.232 14.777 0 11.457 0 7.389 0 3.321 3.232 0 7.214 0c3.983 0 7.214 3.32 7.214 7.388 0 1.94-.74 3.7-1.926 5.015zM7.214 13.44c3.264 0 5.909-2.708 5.909-6.05 0-3.344-2.655-6.052-5.909-6.052-3.264 0-5.908 2.72-5.908 6.051 0 3.332 2.644 6.051 5.908 6.051z"/>
        </g>
    </g>
</svg>